build/obj_dir/dds_sinewave.vcd
$version Generated by VerilatedVcd $end
$timescale 1ps $end
 $scope module $rootio $end
 $upscope $end
 $scope module SineWave_tb $end
  $var wire 1 # clock $end
  $var wire 1 $ reset $end
  $var wire 32 % io_out_value [31:0] $end
  $scope module uut $end
   $var wire 1 # clock $end
   $var wire 1 $ reset $end
   $var wire 32 % io_out_value [31:0] $end
   $var wire 16 & phase [15:0] $end
  $upscope $end
 $upscope $end
$enddefinitions $end


#0
0#
1$
b00000000000100000000000000000000 %
b0000000000000000 &
#5000
1#
#10000
0#
#15000
1#
#20000
0#
0$
#25000
1#
b00000000000011111111010011100110 %
b0000001111101000 &
#30000
0#
#35000
1#
b00000000000011111100001110110010 %
b0000011111010000 &
#40000
0#
#45000
1#
b00000000000011110110101110100000 %
b0000101110111000 &
#50000
0#
#55000
1#
b00000000000011101110110110001001 %
b0000111110100000 &
#60000
0#
#65000
1#
b00000000000011100100101010100101 %
b0001001110001000 &
#70000
0#
#75000
1#
b00000000000011011000010010000101 %
b0001011101110000 &
#80000
0#
#85000
1#
b00000000000011001001110100010001 %
b0001101101011000 &
#90000
0#
#95000
1#
b00000000000010111001011010000100 %
b0001111101000000 &
#100000
0#
#105000
1#
b00000000000010100111001101100101 %
b0010001100101000 &
#110000
0#
#115000
1#
b00000000000010010011011010000010 %
b0010011100010000 &
#120000
0#
#125000
1#
b00000000000010000011100111000011 %
b0010101011111000 &
#130000
0#
#135000
1#
b00000000000001101101011101000100 %
b0010111011100000 &
#140000
0#
#145000
1#
b00000000000001010110001111100110 %
b0011001011001000 &
#150000
0#
#155000
1#
b00000000000000111110001100111111 %
b0011011010110000 &
#160000
0#
#165000
1#
b00000000000000100101100100000010 %
b0011101010011000 &
#170000
0#
#175000
1#
b00000000000000001100100011111011 %
b0011111010000000 &
#180000
0#
#185000
1#
b11111111111111110011011100000101 %
b0100001001101000 &
#190000
0#
#195000
1#
b11111111111111011010011011111110 %
b0100011001010000 &
#200000
0#
#205000
1#
b11111111111111000001110011000001 %
b0100101000111000 &
#210000
0#
#215000
1#
b11111111111110101001110000011010 %
b0100111000100000 &
#220000
0#
#225000
1#
b11111111111110010010100010111100 %
b0101001000001000 &
#230000
0#
#235000
1#
b11111111111110000001110100010111 %
b0101010111110000 &
#240000
0#
#245000
1#
b11111111111101101100100101111110 %
b0101100111011000 &
#250000
0#
#255000
1#
b11111111111101011000110010011011 %
b0101110111000000 &
#260000
0#
#265000
1#
b11111111111101000110100101111100 %
b0110000110101000 &
#270000
0#
#275000
1#
b11111111111100110110001011101111 %
b0110010110010000 &
#280000
0#
#285000
1#
b11111111111100100111101101111011 %
b0110100101111000 &
#290000
0#
#295000
1#
b11111111111100011011010101011011 %
b0110110101100000 &
#300000
0#
#305000
1#
b11111111111100010001001001110111 %
b0111000101001000 &
#310000
0#
#315000
1#
b11111111111100001001010001100000 %
b0111010100110000 &
#320000
0#
#325000
1#
b11111111111100000011110001001110 %
b0111100100011000 &
#330000
0#
#335000
1#
b11111111111100000000101100011010 %
b0111110100000000 &
#340000
0#
#345000
1#
b11111111111100000000000000000000 %
b1000000011101000 &
#350000
0#
#355000
1#
b11111111111100000001001110111010 %
b1000010011010000 &
#360000
0#
#365000
1#
b11111111111100000100111010110101 %
b1000100010111000 &
#370000
0#
#375000
1#
b11111111111100001011000001100000 %
b1000110010100000 &
#380000
0#
#385000
1#
b11111111111100010011011111001011 %
b1001000010001000 &
#390000
0#
#395000
1#
b11111111111100011110001110100111 %
b1001010001110000 &
#400000
0#
#405000
1#
b11111111111100101011001001001101 %
b1001100001011000 &
#410000
0#
#415000
1#
b11111111111100111010000111000000 %
b1001110001000000 &
#420000
0#
#425000
1#
b11111111111101001010111110110001 %
b1010000000101000 &
#430000
0#
#435000
1#
b11111111111101011101100110000111 %
b1010010000010000 &
#440000
0#
#445000
1#
b11111111111101101100100101111110 %
b1010011111111000 &
#450000
0#
#455000
1#
b11111111111110000001110100010111 %
b1010101111100000 &
#460000
0#
#465000
1#
b11111111111110011000010000100010 %
b1010111111001000 &
#470000
0#
#475000
1#
b11111111111110101111101100101001 %
b1011001110110000 &
#480000
0#
#485000
1#
b11111111111111000111111010010000 %
b1011011110011000 &
#490000
0#
#495000
1#
b11111111111111100000101010011100 %
b1011101110000000 &
#500000
0#
#505000
1#
b11111111111111111001101101111011 %
b1011111101101000 &
#510000
0#
#515000
1#
b00000000000000010010110101010010 %
b1100001101010000 &
#520000
0#
#525000
1#
b00000000000000101011110001000010 %
b1100011100111000 &
#530000
0#
#535000
1#
b00000000000001000100010001110100 %
b1100101100100000 &
#540000
0#
#545000
1#
b00000000000001011100001000100001 %
b1100111100001000 &
#550000
0#
#555000
1#
b00000000000001101101011101000100 %
b1101001011110000 &
#560000
0#
#565000
1#
b00000000000010000011100111000011 %
b1101011011011000 &
#570000
0#
#575000
1#
b00000000000010011000011111111011 %
b1101101011000000 &
#580000
0#
#585000
1#
b00000000000010101011111010110100 %
b1101111010101000 &
#590000
0#
#595000
1#
b00000000000010111101101011101111 %
b1110001010010000 &
#600000
0#
#605000
1#
b00000000000011001101100111110000 %
b1110011001111000 &
#610000
0#
#615000
1#
b00000000000011011011100101000001 %
b1110101001100000 &
#620000
0#
#625000
1#
b00000000000011100111011010111101 %
b1110111001001000 &
#630000
0#
#635000
1#
b00000000000011110001000010010000 %
b1111001000110000 &
#640000
0#
#645000
1#
b00000000000011111000010100111111 %
b1111011000011000 &
#650000
0#
#655000
1#
b00000000000011111101001110101010 %
b1111101000000000 &
#660000
0#
#665000
1#
b00000000000011111111010011100110 %
b1111110111101000 &
#670000
0#
#675000
1#
b00000000000011111111111011000100 %
b0000000111010000 &
#680000
0#
#685000
1#
b00000000000011111110000100110010 %
b0000010110111000 &
#690000
0#
#695000
1#
b00000000000011111001110001111001 %
b0000100110100000 &
#700000
0#
#705000
1#
b00000000000011110011000101000100 %
b0000110110001000 &
#710000
0#
#715000
1#
b00000000000011101010000010011010 %
b0001000101110000 &
#720000
0#
#725000
1#
b00000000000011011110101111100000 %
b0001010101011000 &
#730000
0#
#735000
1#
b00000000000011010001010011010011 %
b0001100101000000 &
#740000
0#
#745000
1#
b00000000000011000001110110000111 %
b0001110100101000 &
#750000
0#
#755000
1#
b00000000000010110000100001011011 %
b0010000100010000 &
#760000
0#
#765000
1#
b00000000000010100010011001111001 %
b0010010011111000 &
#770000
0#
#775000
1#
b00000000000010001110001110011101 %
b0010100011100000 &
#780000
0#
#785000
1#
b00000000000001111000101011010111 %
b0010110011001000 &
#790000
0#
#795000
1#
b00000000000001100001111101111000 %
b0011000010110000 &
#800000
0#
#805000
1#
b00000000000001001010010100000001 %
b0011010010011000 &
#810000
0#
#815000
1#
b00000000000000110001111100010111 %
b0011100010000000 &
#820000
0#
#825000
1#
b00000000000000011001000101111010 %
b0011110001101000 &
#830000
0#
#835000
1#
b00000000000000000000000000000000 %
b0100000001010000 &
#840000
0#
#845000
1#
b11111111111111100110111010000110 %
b0100010000111000 &
#850000
0#
#855000
1#
b11111111111111001110000011101001 %
b0100100000100000 &
#860000
0#
#865000
1#
b11111111111110110101101011111111 %
b0100110000001000 &
#870000
0#
#875000
1#
b11111111111110100011110111011111 %
b0100111111110000 &
#880000
0#
#885000
1#
b11111111111110001100111001100101 %
b0101001111011000 &
#890000
0#
#895000
1#
b11111111111101110111000010100111 %
b0101011111000000 &
#900000
0#
#905000
1#
b11111111111101100010100000000011 %
b0101101110101000 &
#910000
0#
#915000
1#
b11111111111101001111011110100101 %
b0101111110010000 &
#920000
0#
#925000
1#
b11111111111100111110001001111001 %
b0110001101111000 &
#930000
0#
#935000
1#
b11111111111100101110101100101101 %
b0110011101100000 &
#940000
0#
#945000
1#
b11111111111100100001010000100000 %
b0110101101001000 &
#950000
0#
#955000
1#
b11111111111100010101111101100110 %
b0110111100110000 &
#960000
0#
#965000
1#
b11111111111100001100111010111100 %
b0111001100011000 &
#970000
0#
#975000
1#
b11111111111100000110001110000111 %
b0111011100000000 &
#980000
0#
#985000
1#
b11111111111100000010110001010110 %
b0111101011101000 &
#990000
0#
#995000
1#
b11111111111100000000010011110000 %
b0111111011010000 &
#1000000
0#
#1005000
1#
b1000001010111000 &
#1010000
0#
#1015000
1#
b11111111111100000010110001010110 %
b1000011010100000 &
