build/obj_dir/dds_cw.vcd
$version Generated by VerilatedVcd $end
$timescale 1ps $end
 $scope module $rootio $end
 $upscope $end
 $scope module CW_tb $end
  $var wire 1 # clock $end
  $var wire 1 $ reset $end
  $var wire 32 % io_out_value [31:0] $end
  $scope module uut $end
   $var wire 1 # clock $end
   $var wire 1 $ reset $end
   $var wire 32 % io_out_value [31:0] $end
   $var wire 24 & phase [23:0] $end
  $upscope $end
 $upscope $end
$enddefinitions $end


#0
0#
1$
b00000000000100000000000000000000 %
b000000000000000000000000 &
#5000
1#
#10000
0#
#15000
1#
#20000
0#
0$
#25000
1#
b000000000000001111101000 &
#30000
0#
#35000
1#
b000000000000011111010000 &
#40000
0#
#45000
1#
b000000000000101110111000 &
#50000
0#
#55000
1#
b000000000000111110100000 &
#60000
0#
#65000
1#
b000000000001001110001000 &
#70000
0#
#75000
1#
b000000000001011101110000 &
#80000
0#
#85000
1#
b000000000001101101011000 &
#90000
0#
#95000
1#
b000000000001111101000000 &
#100000
0#
#105000
1#
b000000000010001100101000 &
#110000
0#
#115000
1#
b000000000010011100010000 &
#120000
0#
#125000
1#
b000000000010101011111000 &
#130000
0#
#135000
1#
b000000000010111011100000 &
#140000
0#
#145000
1#
b000000000011001011001000 &
#150000
0#
#155000
1#
b000000000011011010110000 &
#160000
0#
#165000
1#
b000000000011101010011000 &
#170000
0#
#175000
1#
b000000000011111010000000 &
#180000
0#
#185000
1#
b000000000100001001101000 &
#190000
0#
#195000
1#
b000000000100011001010000 &
#200000
0#
#205000
1#
b000000000100101000111000 &
#210000
0#
#215000
1#
b000000000100111000100000 &
#220000
0#
#225000
1#
b000000000101001000001000 &
#230000
0#
#235000
1#
b000000000101010111110000 &
#240000
0#
#245000
1#
b000000000101100111011000 &
#250000
0#
#255000
1#
b000000000101110111000000 &
#260000
0#
#265000
1#
b000000000110000110101000 &
#270000
0#
#275000
1#
b000000000110010110010000 &
#280000
0#
#285000
1#
b000000000110100101111000 &
#290000
0#
#295000
1#
b000000000110110101100000 &
#300000
0#
#305000
1#
b000000000111000101001000 &
#310000
0#
#315000
1#
b000000000111010100110000 &
#320000
0#
#325000
1#
b000000000111100100011000 &
#330000
0#
#335000
1#
b000000000111110100000000 &
#340000
0#
#345000
1#
b000000001000000011101000 &
#350000
0#
#355000
1#
b000000001000010011010000 &
#360000
0#
#365000
1#
b000000001000100010111000 &
#370000
0#
#375000
1#
b000000001000110010100000 &
#380000
0#
#385000
1#
b000000001001000010001000 &
#390000
0#
#395000
1#
b000000001001010001110000 &
#400000
0#
#405000
1#
b000000001001100001011000 &
#410000
0#
#415000
1#
b000000001001110001000000 &
#420000
0#
#425000
1#
b000000001010000000101000 &
#430000
0#
#435000
1#
b000000001010010000010000 &
#440000
0#
#445000
1#
b000000001010011111111000 &
#450000
0#
#455000
1#
b000000001010101111100000 &
#460000
0#
#465000
1#
b000000001010111111001000 &
#470000
0#
#475000
1#
b000000001011001110110000 &
#480000
0#
#485000
1#
b000000001011011110011000 &
#490000
0#
#495000
1#
b000000001011101110000000 &
#500000
0#
#505000
1#
b000000001011111101101000 &
#510000
0#
#515000
1#
b000000001100001101010000 &
#520000
0#
#525000
1#
b000000001100011100111000 &
#530000
0#
#535000
1#
b000000001100101100100000 &
#540000
0#
#545000
1#
b000000001100111100001000 &
#550000
0#
#555000
1#
b000000001101001011110000 &
#560000
0#
#565000
1#
b000000001101011011011000 &
#570000
0#
#575000
1#
b000000001101101011000000 &
#580000
0#
#585000
1#
b000000001101111010101000 &
#590000
0#
#595000
1#
b000000001110001010010000 &
#600000
0#
#605000
1#
b000000001110011001111000 &
#610000
0#
#615000
1#
b000000001110101001100000 &
#620000
0#
#625000
1#
b000000001110111001001000 &
#630000
0#
#635000
1#
b000000001111001000110000 &
#640000
0#
#645000
1#
b000000001111011000011000 &
#650000
0#
#655000
1#
b000000001111101000000000 &
#660000
0#
#665000
1#
b000000001111110111101000 &
#670000
0#
#675000
1#
b00000000000011111111111011000100 %
b000000010000000111010000 &
#680000
0#
#685000
1#
b000000010000010110111000 &
#690000
0#
#695000
1#
b000000010000100110100000 &
#700000
0#
#705000
1#
b000000010000110110001000 &
#710000
0#
#715000
1#
b000000010001000101110000 &
#720000
0#
#725000
1#
b000000010001010101011000 &
#730000
0#
#735000
1#
b000000010001100101000000 &
#740000
0#
#745000
1#
b000000010001110100101000 &
#750000
0#
#755000
1#
b000000010010000100010000 &
#760000
0#
#765000
1#
b000000010010010011111000 &
#770000
0#
#775000
1#
b000000010010100011100000 &
#780000
0#
#785000
1#
b000000010010110011001000 &
#790000
0#
#795000
1#
b000000010011000010110000 &
#800000
0#
#805000
1#
b000000010011010010011000 &
#810000
0#
#815000
1#
b000000010011100010000000 &
#820000
0#
#825000
1#
b000000010011110001101000 &
#830000
0#
#835000
1#
b000000010100000001010000 &
#840000
0#
#845000
1#
b000000010100010000111000 &
#850000
0#
#855000
1#
b000000010100100000100000 &
#860000
0#
#865000
1#
b000000010100110000001000 &
#870000
0#
#875000
1#
b000000010100111111110000 &
#880000
0#
#885000
1#
b000000010101001111011000 &
#890000
0#
#895000
1#
b000000010101011111000000 &
#900000
0#
#905000
1#
b000000010101101110101000 &
#910000
0#
#915000
1#
b000000010101111110010000 &
#920000
0#
#925000
1#
b000000010110001101111000 &
#930000
0#
#935000
1#
b000000010110011101100000 &
#940000
0#
#945000
1#
b000000010110101101001000 &
#950000
0#
#955000
1#
b000000010110111100110000 &
#960000
0#
#965000
1#
b000000010111001100011000 &
#970000
0#
#975000
1#
b000000010111011100000000 &
#980000
0#
#985000
1#
b000000010111101011101000 &
#990000
0#
#995000
1#
b000000010111111011010000 &
#1000000
0#
#1005000
1#
b000000011000001010111000 &
#1010000
0#
#1015000
1#
b000000011000011010100000 &
#1020000
0#
#1025000
1#
b000000011000101010001000 &
#1030000
0#
#1035000
1#
b000000011000111001110000 &
#1040000
0#
#1045000
1#
b000000011001001001011000 &
#1050000
0#
#1055000
1#
b000000011001011001000000 &
#1060000
0#
#1065000
1#
b000000011001101000101000 &
#1070000
0#
#1075000
1#
b000000011001111000010000 &
#1080000
0#
#1085000
1#
b000000011010000111111000 &
#1090000
0#
#1095000
1#
b000000011010010111100000 &
#1100000
0#
#1105000
1#
b000000011010100111001000 &
#1110000
0#
#1115000
1#
b000000011010110110110000 &
#1120000
0#
#1125000
1#
b000000011011000110011000 &
#1130000
0#
#1135000
1#
b000000011011010110000000 &
#1140000
0#
#1145000
1#
b000000011011100101101000 &
#1150000
0#
#1155000
1#
b000000011011110101010000 &
#1160000
0#
#1165000
1#
b000000011100000100111000 &
#1170000
0#
#1175000
1#
b000000011100010100100000 &
#1180000
0#
#1185000
1#
b000000011100100100001000 &
#1190000
0#
#1195000
1#
b000000011100110011110000 &
#1200000
0#
#1205000
1#
b000000011101000011011000 &
#1210000
0#
#1215000
1#
b000000011101010011000000 &
#1220000
0#
#1225000
1#
b000000011101100010101000 &
#1230000
0#
#1235000
1#
b000000011101110010010000 &
#1240000
0#
#1245000
1#
b000000011110000001111000 &
#1250000
0#
#1255000
1#
b000000011110010001100000 &
#1260000
0#
#1265000
1#
b000000011110100001001000 &
#1270000
0#
#1275000
1#
b000000011110110000110000 &
#1280000
0#
#1285000
1#
b000000011111000000011000 &
#1290000
0#
#1295000
1#
b000000011111010000000000 &
#1300000
0#
#1305000
1#
b000000011111011111101000 &
#1310000
0#
#1315000
1#
b000000011111101111010000 &
#1320000
0#
#1325000
1#
b000000011111111110111000 &
#1330000
0#
#1335000
1#
b00000000000011111111101100010000 %
b000000100000001110100000 &
#1340000
0#
#1345000
1#
b000000100000011110001000 &
#1350000
0#
#1355000
1#
b000000100000101101110000 &
#1360000
0#
#1365000
1#
b000000100000111101011000 &
#1370000
0#
#1375000
1#
b000000100001001101000000 &
#1380000
0#
#1385000
1#
b000000100001011100101000 &
#1390000
0#
#1395000
1#
b000000100001101100010000 &
#1400000
0#
#1405000
1#
b000000100001111011111000 &
#1410000
0#
#1415000
1#
b000000100010001011100000 &
#1420000
0#
#1425000
1#
b000000100010011011001000 &
#1430000
0#
#1435000
1#
b000000100010101010110000 &
#1440000
0#
#1445000
1#
b000000100010111010011000 &
#1450000
0#
#1455000
1#
b000000100011001010000000 &
#1460000
0#
#1465000
1#
b000000100011011001101000 &
#1470000
0#
#1475000
1#
b000000100011101001010000 &
#1480000
0#
#1485000
1#
b000000100011111000111000 &
#1490000
0#
#1495000
1#
b000000100100001000100000 &
#1500000
0#
#1505000
1#
b000000100100011000001000 &
#1510000
0#
#1515000
1#
b000000100100100111110000 &
#1520000
0#
#1525000
1#
b000000100100110111011000 &
#1530000
0#
#1535000
1#
b000000100101000111000000 &
#1540000
0#
#1545000
1#
b000000100101010110101000 &
#1550000
0#
#1555000
1#
b000000100101100110010000 &
#1560000
0#
#1565000
1#
b000000100101110101111000 &
#1570000
0#
#1575000
1#
b000000100110000101100000 &
#1580000
0#
#1585000
1#
b000000100110010101001000 &
#1590000
0#
#1595000
1#
b000000100110100100110000 &
#1600000
0#
#1605000
1#
b000000100110110100011000 &
#1610000
0#
#1615000
1#
b000000100111000100000000 &
#1620000
0#
#1625000
1#
b000000100111010011101000 &
#1630000
0#
#1635000
1#
b000000100111100011010000 &
#1640000
0#
#1645000
1#
b000000100111110010111000 &
#1650000
0#
#1655000
1#
b000000101000000010100000 &
#1660000
0#
#1665000
1#
b000000101000010010001000 &
#1670000
0#
#1675000
1#
b000000101000100001110000 &
#1680000
0#
#1685000
1#
b000000101000110001011000 &
#1690000
0#
#1695000
1#
b000000101001000001000000 &
#1700000
0#
#1705000
1#
b000000101001010000101000 &
#1710000
0#
#1715000
1#
b000000101001100000010000 &
#1720000
0#
#1725000
1#
b000000101001101111111000 &
#1730000
0#
#1735000
1#
b000000101001111111100000 &
#1740000
0#
#1745000
1#
b000000101010001111001000 &
#1750000
0#
#1755000
1#
b000000101010011110110000 &
#1760000
0#
#1765000
1#
b000000101010101110011000 &
#1770000
0#
#1775000
1#
b000000101010111110000000 &
#1780000
0#
#1785000
1#
b000000101011001101101000 &
#1790000
0#
#1795000
1#
b000000101011011101010000 &
#1800000
0#
#1805000
1#
b000000101011101100111000 &
#1810000
0#
#1815000
1#
b000000101011111100100000 &
#1820000
0#
#1825000
1#
b000000101100001100001000 &
#1830000
0#
#1835000
1#
b000000101100011011110000 &
#1840000
0#
#1845000
1#
b000000101100101011011000 &
#1850000
0#
#1855000
1#
b000000101100111011000000 &
#1860000
0#
#1865000
1#
b000000101101001010101000 &
#1870000
0#
#1875000
1#
b000000101101011010010000 &
#1880000
0#
#1885000
1#
b000000101101101001111000 &
#1890000
0#
#1895000
1#
b000000101101111001100000 &
#1900000
0#
#1905000
1#
b000000101110001001001000 &
#1910000
0#
#1915000
1#
b000000101110011000110000 &
#1920000
0#
#1925000
1#
b000000101110101000011000 &
#1930000
0#
#1935000
1#
b000000101110111000000000 &
#1940000
0#
#1945000
1#
b000000101111000111101000 &
#1950000
0#
#1955000
1#
b000000101111010111010000 &
#1960000
0#
#1965000
1#
b000000101111100110111000 &
#1970000
0#
#1975000
1#
b000000101111110110100000 &
#1980000
0#
#1985000
1#
b00000000000011111111010011100110 %
b000000110000000110001000 &
#1990000
0#
#1995000
1#
b000000110000010101110000 &
#2000000
0#
#2005000
1#
b000000110000100101011000 &
#2010000
0#
#2015000
1#
b000000110000110101000000 &
#2020000
0#
#2025000
1#
b000000110001000100101000 &
#2030000
0#
#2035000
1#
b000000110001010100010000 &
#2040000
0#
#2045000
1#
b000000110001100011111000 &
#2050000
0#
#2055000
1#
b000000110001110011100000 &
#2060000
0#
#2065000
1#
b000000110010000011001000 &
#2070000
0#
#2075000
1#
b000000110010010010110000 &
#2080000
0#
#2085000
1#
b000000110010100010011000 &
#2090000
0#
#2095000
1#
b000000110010110010000000 &
#2100000
0#
#2105000
1#
b000000110011000001101000 &
#2110000
0#
#2115000
1#
b000000110011010001010000 &
#2120000
0#
#2125000
1#
b000000110011100000111000 &
#2130000
0#
#2135000
1#
b000000110011110000100000 &
#2140000
0#
#2145000
1#
b000000110100000000001000 &
#2150000
0#
#2155000
1#
b000000110100001111110000 &
#2160000
0#
#2165000
1#
b000000110100011111011000 &
#2170000
0#
#2175000
1#
b000000110100101111000000 &
#2180000
0#
#2185000
1#
b000000110100111110101000 &
#2190000
0#
#2195000
1#
b000000110101001110010000 &
#2200000
0#
#2205000
1#
b000000110101011101111000 &
#2210000
0#
#2215000
1#
b000000110101101101100000 &
#2220000
0#
#2225000
1#
b000000110101111101001000 &
#2230000
0#
#2235000
1#
b000000110110001100110000 &
#2240000
0#
#2245000
1#
b000000110110011100011000 &
#2250000
0#
#2255000
1#
b000000110110101100000000 &
#2260000
0#
#2265000
1#
b000000110110111011101000 &
#2270000
0#
#2275000
1#
b000000110111001011010000 &
#2280000
0#
#2285000
1#
b000000110111011010111000 &
#2290000
0#
#2295000
1#
b000000110111101010100000 &
#2300000
0#
#2305000
1#
b000000110111111010001000 &
#2310000
0#
#2315000
1#
b000000111000001001110000 &
#2320000
0#
#2325000
1#
b000000111000011001011000 &
#2330000
0#
#2335000
1#
b000000111000101001000000 &
#2340000
0#
#2345000
1#
b000000111000111000101000 &
#2350000
0#
#2355000
1#
b000000111001001000010000 &
#2360000
0#
#2365000
1#
b000000111001010111111000 &
#2370000
0#
#2375000
1#
b000000111001100111100000 &
#2380000
0#
#2385000
1#
b000000111001110111001000 &
#2390000
0#
#2395000
1#
b000000111010000110110000 &
#2400000
0#
#2405000
1#
b000000111010010110011000 &
#2410000
0#
#2415000
1#
b000000111010100110000000 &
#2420000
0#
#2425000
1#
b000000111010110101101000 &
#2430000
0#
#2435000
1#
b000000111011000101010000 &
#2440000
0#
#2445000
1#
b000000111011010100111000 &
#2450000
0#
#2455000
1#
b000000111011100100100000 &
#2460000
0#
#2465000
1#
b000000111011110100001000 &
#2470000
0#
#2475000
1#
b000000111100000011110000 &
#2480000
0#
#2485000
1#
b000000111100010011011000 &
#2490000
0#
#2495000
1#
b000000111100100011000000 &
#2500000
0#
#2505000
1#
b000000111100110010101000 &
#2510000
0#
#2515000
1#
b000000111101000010010000 &
#2520000
0#
#2525000
1#
b000000111101010001111000 &
#2530000
0#
#2535000
1#
b000000111101100001100000 &
#2540000
0#
#2545000
1#
b000000111101110001001000 &
#2550000
0#
#2555000
1#
b000000111110000000110000 &
#2560000
0#
#2565000
1#
b000000111110010000011000 &
#2570000
0#
#2575000
1#
b000000111110100000000000 &
#2580000
0#
#2585000
1#
b000000111110101111101000 &
#2590000
0#
#2595000
1#
b000000111110111111010000 &
#2600000
0#
#2605000
1#
b000000111111001110111000 &
#2610000
0#
#2615000
1#
b000000111111011110100000 &
#2620000
0#
#2625000
1#
b000000111111101110001000 &
#2630000
0#
#2635000
1#
b000000111111111101110000 &
#2640000
0#
#2645000
1#
b00000000000011111110110001000110 %
b000001000000001101011000 &
#2650000
0#
#2655000
1#
b000001000000011101000000 &
#2660000
0#
#2665000
1#
b000001000000101100101000 &
#2670000
0#
#2675000
1#
b000001000000111100010000 &
#2680000
0#
#2685000
1#
b000001000001001011111000 &
#2690000
0#
#2695000
1#
b000001000001011011100000 &
#2700000
0#
#2705000
1#
b000001000001101011001000 &
#2710000
0#
#2715000
1#
b000001000001111010110000 &
#2720000
0#
#2725000
1#
b000001000010001010011000 &
#2730000
0#
#2735000
1#
b000001000010011010000000 &
#2740000
0#
#2745000
1#
b000001000010101001101000 &
#2750000
0#
#2755000
1#
b000001000010111001010000 &
#2760000
0#
#2765000
1#
b000001000011001000111000 &
#2770000
0#
#2775000
1#
b000001000011011000100000 &
#2780000
0#
#2785000
1#
b000001000011101000001000 &
#2790000
0#
#2795000
1#
b000001000011110111110000 &
#2800000
0#
#2805000
1#
b000001000100000111011000 &
#2810000
0#
#2815000
1#
b000001000100010111000000 &
#2820000
0#
#2825000
1#
b000001000100100110101000 &
#2830000
0#
#2835000
1#
b000001000100110110010000 &
#2840000
0#
#2845000
1#
b000001000101000101111000 &
#2850000
0#
#2855000
1#
b000001000101010101100000 &
#2860000
0#
#2865000
1#
b000001000101100101001000 &
#2870000
0#
#2875000
1#
b000001000101110100110000 &
#2880000
0#
#2885000
1#
b000001000110000100011000 &
#2890000
0#
#2895000
1#
b000001000110010100000000 &
#2900000
0#
#2905000
1#
b000001000110100011101000 &
#2910000
0#
#2915000
1#
b000001000110110011010000 &
#2920000
0#
#2925000
1#
b000001000111000010111000 &
#2930000
0#
#2935000
1#
b000001000111010010100000 &
#2940000
0#
#2945000
1#
b000001000111100010001000 &
#2950000
0#
#2955000
1#
b000001000111110001110000 &
#2960000
0#
#2965000
1#
b000001001000000001011000 &
#2970000
0#
#2975000
1#
b000001001000010001000000 &
#2980000
0#
#2985000
1#
b000001001000100000101000 &
#2990000
0#
#2995000
1#
b000001001000110000010000 &
#3000000
0#
#3005000
1#
b000001001000111111111000 &
#3010000
0#
#3015000
1#
b000001001001001111100000 &
#3020000
0#
#3025000
1#
b000001001001011111001000 &
#3030000
0#
#3035000
1#
b000001001001101110110000 &
#3040000
0#
#3045000
1#
b000001001001111110011000 &
#3050000
0#
#3055000
1#
b000001001010001110000000 &
#3060000
0#
#3065000
1#
b000001001010011101101000 &
#3070000
0#
#3075000
1#
b000001001010101101010000 &
#3080000
0#
#3085000
1#
b000001001010111100111000 &
#3090000
0#
#3095000
1#
b000001001011001100100000 &
#3100000
0#
#3105000
1#
b000001001011011100001000 &
#3110000
0#
#3115000
1#
b000001001011101011110000 &
#3120000
0#
#3125000
1#
b000001001011111011011000 &
#3130000
0#
#3135000
1#
b000001001100001011000000 &
#3140000
0#
#3145000
1#
b000001001100011010101000 &
#3150000
0#
#3155000
1#
b000001001100101010010000 &
#3160000
0#
#3165000
1#
b000001001100111001111000 &
#3170000
0#
#3175000
1#
b000001001101001001100000 &
#3180000
0#
#3185000
1#
b000001001101011001001000 &
#3190000
0#
#3195000
1#
b000001001101101000110000 &
#3200000
0#
#3205000
1#
b000001001101111000011000 &
#3210000
0#
#3215000
1#
b000001001110001000000000 &
#3220000
0#
#3225000
1#
b000001001110010111101000 &
#3230000
0#
#3235000
1#
b000001001110100111010000 &
#3240000
0#
#3245000
1#
b000001001110110110111000 &
#3250000
0#
#3255000
1#
b000001001111000110100000 &
#3260000
0#
#3265000
1#
b000001001111010110001000 &
#3270000
0#
#3275000
1#
b000001001111100101110000 &
#3280000
0#
#3285000
1#
b000001001111110101011000 &
#3290000
0#
#3295000
1#
b00000000000011111110000100110010 %
b000001010000000101000000 &
#3300000
0#
#3305000
1#
b000001010000010100101000 &
#3310000
0#
#3315000
1#
b000001010000100100010000 &
#3320000
0#
#3325000
1#
b000001010000110011111000 &
#3330000
0#
#3335000
1#
b000001010001000011100000 &
#3340000
0#
#3345000
1#
b000001010001010011001000 &
#3350000
0#
#3355000
1#
b000001010001100010110000 &
#3360000
0#
#3365000
1#
b000001010001110010011000 &
#3370000
0#
#3375000
1#
b000001010010000010000000 &
#3380000
0#
#3385000
1#
b000001010010010001101000 &
#3390000
0#
#3395000
1#
b000001010010100001010000 &
#3400000
0#
#3405000
1#
b000001010010110000111000 &
#3410000
0#
#3415000
1#
b000001010011000000100000 &
#3420000
0#
#3425000
1#
b000001010011010000001000 &
#3430000
0#
#3435000
1#
b000001010011011111110000 &
#3440000
0#
#3445000
1#
b000001010011101111011000 &
#3450000
0#
#3455000
1#
b000001010011111111000000 &
#3460000
0#
#3465000
1#
b000001010100001110101000 &
#3470000
0#
#3475000
1#
b000001010100011110010000 &
#3480000
0#
#3485000
1#
b000001010100101101111000 &
#3490000
0#
#3495000
1#
b000001010100111101100000 &
#3500000
0#
#3505000
1#
b000001010101001101001000 &
#3510000
0#
#3515000
1#
b000001010101011100110000 &
#3520000
0#
#3525000
1#
b000001010101101100011000 &
#3530000
0#
#3535000
1#
b000001010101111100000000 &
#3540000
0#
#3545000
1#
b000001010110001011101000 &
#3550000
0#
#3555000
1#
b000001010110011011010000 &
#3560000
0#
#3565000
1#
b000001010110101010111000 &
#3570000
0#
#3575000
1#
b000001010110111010100000 &
#3580000
0#
#3585000
1#
b000001010111001010001000 &
#3590000
0#
#3595000
1#
b000001010111011001110000 &
#3600000
0#
#3605000
1#
b000001010111101001011000 &
#3610000
0#
#3615000
1#
b000001010111111001000000 &
#3620000
0#
#3625000
1#
b000001011000001000101000 &
#3630000
0#
#3635000
1#
b000001011000011000010000 &
#3640000
0#
#3645000
1#
b000001011000100111111000 &
#3650000
0#
#3655000
1#
b000001011000110111100000 &
#3660000
0#
#3665000
1#
b000001011001000111001000 &
#3670000
0#
#3675000
1#
b000001011001010110110000 &
#3680000
0#
#3685000
1#
b000001011001100110011000 &
#3690000
0#
#3695000
1#
b000001011001110110000000 &
#3700000
0#
#3705000
1#
b000001011010000101101000 &
#3710000
0#
#3715000
1#
b000001011010010101010000 &
#3720000
0#
#3725000
1#
b000001011010100100111000 &
#3730000
0#
#3735000
1#
b000001011010110100100000 &
#3740000
0#
#3745000
1#
b000001011011000100001000 &
#3750000
0#
#3755000
1#
b000001011011010011110000 &
#3760000
0#
#3765000
1#
b000001011011100011011000 &
#3770000
0#
#3775000
1#
b000001011011110011000000 &
#3780000
0#
#3785000
1#
b000001011100000010101000 &
#3790000
0#
#3795000
1#
b000001011100010010010000 &
#3800000
0#
#3805000
1#
b000001011100100001111000 &
#3810000
0#
#3815000
1#
b000001011100110001100000 &
#3820000
0#
#3825000
1#
b000001011101000001001000 &
#3830000
0#
#3835000
1#
b000001011101010000110000 &
#3840000
0#
#3845000
1#
b000001011101100000011000 &
#3850000
0#
#3855000
1#
b000001011101110000000000 &
#3860000
0#
#3865000
1#
b000001011101111111101000 &
#3870000
0#
#3875000
1#
b000001011110001111010000 &
#3880000
0#
#3885000
1#
b000001011110011110111000 &
#3890000
0#
#3895000
1#
b000001011110101110100000 &
#3900000
0#
#3905000
1#
b000001011110111110001000 &
#3910000
0#
#3915000
1#
b000001011111001101110000 &
#3920000
0#
#3925000
1#
b000001011111011101011000 &
#3930000
0#
#3935000
1#
b000001011111101101000000 &
#3940000
0#
#3945000
1#
b000001011111111100101000 &
#3950000
0#
#3955000
1#
b00000000000011111101001110101010 %
b000001100000001100010000 &
#3960000
0#
#3965000
1#
b000001100000011011111000 &
#3970000
0#
#3975000
1#
b000001100000101011100000 &
#3980000
0#
#3985000
1#
b000001100000111011001000 &
#3990000
0#
#3995000
1#
b000001100001001010110000 &
#4000000
0#
#4005000
1#
b000001100001011010011000 &
#4010000
0#
#4015000
1#
b000001100001101010000000 &
#4020000
0#
#4025000
1#
b000001100001111001101000 &
#4030000
0#
#4035000
1#
b000001100010001001010000 &
#4040000
0#
#4045000
1#
b000001100010011000111000 &
#4050000
0#
#4055000
1#
b000001100010101000100000 &
#4060000
0#
#4065000
1#
b000001100010111000001000 &
#4070000
0#
#4075000
1#
b000001100011000111110000 &
#4080000
0#
#4085000
1#
b000001100011010111011000 &
#4090000
0#
#4095000
1#
b000001100011100111000000 &
#4100000
0#
#4105000
1#
b000001100011110110101000 &
#4110000
0#
#4115000
1#
b000001100100000110010000 &
#4120000
0#
#4125000
1#
b000001100100010101111000 &
#4130000
0#
#4135000
1#
b000001100100100101100000 &
#4140000
0#
#4145000
1#
b000001100100110101001000 &
#4150000
0#
#4155000
1#
b000001100101000100110000 &
#4160000
0#
#4165000
1#
b000001100101010100011000 &
#4170000
0#
#4175000
1#
b000001100101100100000000 &
#4180000
0#
#4185000
1#
b000001100101110011101000 &
#4190000
0#
#4195000
1#
b000001100110000011010000 &
#4200000
0#
#4205000
1#
b000001100110010010111000 &
#4210000
0#
#4215000
1#
b000001100110100010100000 &
#4220000
0#
#4225000
1#
b000001100110110010001000 &
#4230000
0#
#4235000
1#
b000001100111000001110000 &
#4240000
0#
#4245000
1#
b000001100111010001011000 &
#4250000
0#
#4255000
1#
b000001100111100001000000 &
#4260000
0#
#4265000
1#
b000001100111110000101000 &
#4270000
0#
#4275000
1#
b000001101000000000010000 &
#4280000
0#
#4285000
1#
b000001101000001111111000 &
#4290000
0#
#4295000
1#
b000001101000011111100000 &
#4300000
0#
#4305000
1#
b000001101000101111001000 &
#4310000
0#
#4315000
1#
b000001101000111110110000 &
#4320000
0#
#4325000
1#
b000001101001001110011000 &
#4330000
0#
#4335000
1#
b000001101001011110000000 &
#4340000
0#
#4345000
1#
b000001101001101101101000 &
#4350000
0#
#4355000
1#
b000001101001111101010000 &
#4360000
0#
#4365000
1#
b000001101010001100111000 &
#4370000
0#
#4375000
1#
b000001101010011100100000 &
#4380000
0#
#4385000
1#
b000001101010101100001000 &
#4390000
0#
#4395000
1#
b000001101010111011110000 &
#4400000
0#
#4405000
1#
b000001101011001011011000 &
#4410000
0#
#4415000
1#
b000001101011011011000000 &
#4420000
0#
#4425000
1#
b000001101011101010101000 &
#4430000
0#
#4435000
1#
b000001101011111010010000 &
#4440000
0#
#4445000
1#
b000001101100001001111000 &
#4450000
0#
#4455000
1#
b000001101100011001100000 &
#4460000
0#
#4465000
1#
b000001101100101001001000 &
#4470000
0#
#4475000
1#
b000001101100111000110000 &
#4480000
0#
#4485000
1#
b000001101101001000011000 &
#4490000
0#
#4495000
1#
b000001101101011000000000 &
#4500000
0#
#4505000
1#
b000001101101100111101000 &
#4510000
0#
#4515000
1#
b000001101101110111010000 &
#4520000
0#
#4525000
1#
b000001101110000110111000 &
#4530000
0#
#4535000
1#
b000001101110010110100000 &
#4540000
0#
#4545000
1#
b000001101110100110001000 &
#4550000
0#
#4555000
1#
b000001101110110101110000 &
#4560000
0#
#4565000
1#
b000001101111000101011000 &
#4570000
0#
#4575000
1#
b000001101111010101000000 &
#4580000
0#
#4585000
1#
b000001101111100100101000 &
#4590000
0#
#4595000
1#
b000001101111110100010000 &
#4600000
0#
#4605000
1#
b00000000000011111100001110110010 %
b000001110000000011111000 &
#4610000
0#
#4615000
1#
b000001110000010011100000 &
#4620000
0#
#4625000
1#
b000001110000100011001000 &
#4630000
0#
#4635000
1#
b000001110000110010110000 &
#4640000
0#
#4645000
1#
b000001110001000010011000 &
#4650000
0#
#4655000
1#
b000001110001010010000000 &
#4660000
0#
#4665000
1#
b000001110001100001101000 &
#4670000
0#
#4675000
1#
b000001110001110001010000 &
#4680000
0#
#4685000
1#
b000001110010000000111000 &
#4690000
0#
#4695000
1#
b000001110010010000100000 &
#4700000
0#
#4705000
1#
b000001110010100000001000 &
#4710000
0#
#4715000
1#
b000001110010101111110000 &
#4720000
0#
#4725000
1#
b000001110010111111011000 &
#4730000
0#
#4735000
1#
b000001110011001111000000 &
#4740000
0#
#4745000
1#
b000001110011011110101000 &
#4750000
0#
#4755000
1#
b000001110011101110010000 &
#4760000
0#
#4765000
1#
b000001110011111101111000 &
#4770000
0#
#4775000
1#
b000001110100001101100000 &
#4780000
0#
#4785000
1#
b000001110100011101001000 &
#4790000
0#
#4795000
1#
b000001110100101100110000 &
#4800000
0#
#4805000
1#
b000001110100111100011000 &
#4810000
0#
#4815000
1#
b000001110101001100000000 &
#4820000
0#
#4825000
1#
b000001110101011011101000 &
#4830000
0#
#4835000
1#
b000001110101101011010000 &
#4840000
0#
#4845000
1#
b000001110101111010111000 &
#4850000
0#
#4855000
1#
b000001110110001010100000 &
#4860000
0#
#4865000
1#
b000001110110011010001000 &
#4870000
0#
#4875000
1#
b000001110110101001110000 &
#4880000
0#
#4885000
1#
b000001110110111001011000 &
#4890000
0#
#4895000
1#
b000001110111001001000000 &
#4900000
0#
#4905000
1#
b000001110111011000101000 &
#4910000
0#
#4915000
1#
b000001110111101000010000 &
#4920000
0#
#4925000
1#
b000001110111110111111000 &
#4930000
0#
#4935000
1#
b000001111000000111100000 &
#4940000
0#
#4945000
1#
b000001111000010111001000 &
#4950000
0#
#4955000
1#
b000001111000100110110000 &
#4960000
0#
#4965000
1#
b000001111000110110011000 &
#4970000
0#
#4975000
1#
b000001111001000110000000 &
#4980000
0#
#4985000
1#
b000001111001010101101000 &
#4990000
0#
#4995000
1#
b000001111001100101010000 &
#5000000
0#
#5005000
1#
b000001111001110100111000 &
#5010000
0#
#5015000
1#
b000001111010000100100000 &
#5020000
0#
#5025000
1#
b000001111010010100001000 &
#5030000
0#
#5035000
1#
b000001111010100011110000 &
#5040000
0#
#5045000
1#
b000001111010110011011000 &
#5050000
0#
#5055000
1#
b000001111011000011000000 &
#5060000
0#
#5065000
1#
b000001111011010010101000 &
#5070000
0#
#5075000
1#
b000001111011100010010000 &
#5080000
0#
#5085000
1#
b000001111011110001111000 &
#5090000
0#
#5095000
1#
b000001111100000001100000 &
#5100000
0#
#5105000
1#
b000001111100010001001000 &
#5110000
0#
#5115000
1#
b000001111100100000110000 &
#5120000
0#
#5125000
1#
b000001111100110000011000 &
#5130000
0#
#5135000
1#
b000001111101000000000000 &
#5140000
0#
#5145000
1#
b000001111101001111101000 &
#5150000
0#
#5155000
1#
b000001111101011111010000 &
#5160000
0#
#5165000
1#
b000001111101101110111000 &
#5170000
0#
#5175000
1#
b000001111101111110100000 &
#5180000
0#
#5185000
1#
b000001111110001110001000 &
#5190000
0#
#5195000
1#
b000001111110011101110000 &
#5200000
0#
#5205000
1#
b000001111110101101011000 &
#5210000
0#
#5215000
1#
b000001111110111101000000 &
#5220000
0#
#5225000
1#
b000001111111001100101000 &
#5230000
0#
#5235000
1#
b000001111111011100010000 &
#5240000
0#
#5245000
1#
b000001111111101011111000 &
#5250000
0#
#5255000
1#
b000001111111111011100000 &
#5260000
0#
#5265000
1#
b00000000000011111011000101001011 %
b000010000000001011001000 &
#5270000
0#
#5275000
1#
b000010000000011010110000 &
#5280000
0#
#5285000
1#
b000010000000101010011000 &
#5290000
0#
