build/obj_dir/fm.vcd
$version Generated by VerilatedVcd $end
$timescale 1ps $end
 $scope module $rootio $end
 $upscope $end
 $scope module FM_tb $end
  $var wire 1 # clock $end
  $var wire 1 $ reset $end
  $var wire 32 % io_in_value [31:0] $end
  $var wire 32 & io_out_value [31:0] $end
  $scope module unnamedblk1 $end
   $var wire 32 ' i [31:0] $end
  $upscope $end
  $scope module uut $end
   $var wire 1 # clock $end
   $var wire 1 $ reset $end
   $var wire 32 % io_in_value [31:0] $end
   $var wire 32 & io_out_value [31:0] $end
   $scope module trig $end
    $var wire 1 # clock $end
    $var wire 1 $ reset $end
    $var wire 24 ( io_phase_delta [23:0] $end
    $var wire 32 & io_out_value [31:0] $end
    $var wire 24 ) phase [23:0] $end
   $upscope $end
  $upscope $end
 $upscope $end
$enddefinitions $end


#0
0#
1$
b00000000000000000000000000000000 %
b00000000000000000000000000000000 &
b00000000000000000000000000000000 '
b000000000000000000000000 (
b000000000000000000000000 )
#5000
1#
#10000
0#
#15000
1#
#20000
0#
0$
#25000
1#
b00000000000001011100001000100001 &
b000011110100001001000000 )
#30000
0#
b00000000000000010000000100110000 %
b00000000000000000000000000000001 '
b000000000111101010100010 (
#35000
1#
b00000000000010101011111010110100 &
b000111101111111100100010 )
#40000
0#
b00000000000000100000000101011101 %
b00000000000000000000000000000010 '
b000000001111010011001010 (
#45000
1#
b00000000000011101010000010011010 &
b001011110011011000101100 )
#50000
0#
b00000000000000101111111110000011 %
b00000000000000000000000000000011 '
b000000010110110111111010 (
#55000
1#
b00000000000011111111111011000100 &
b001111111110011001100110 )
#60000
0#
b00000000000000111111101010100010 %
b00000000000000000000000000000100 '
b000000011110010110111000 (
#65000
1#
b00000000000011101010000010011010 &
b010100010000111001011110 )
#70000
0#
b00000000000001001111000110111011 %
b00000000000000000000000000000101 '
b000000100101101110001100 (
#75000
1#
b00000000000010101011111010110100 &
b011000101010110000101010 )
#80000
0#
b00000000000001011110001111010110 %
b00000000000000000000000000000110 '
b000000101100111011111110 (
#85000
1#
b00000000000001001010010100000001 &
b011101001011110101101000 )
#90000
0#
b00000000000001101100111111111101 %
b00000000000000000000000000000111 '
b000000110011111110011001 (
#95000
1#
b11111111111111010100001110111110 &
b100001110011111101000001 )
#100000
0#
b00000000000001111011010101000011 %
b00000000000000000000000000001000 '
b000000111010110011101100 (
#105000
1#
b11111111111101100111100000000101 &
b100110100010111001101101 )
#110000
0#
b00000000000010001001001010111111 %
b00000000000000000000000000001001 '
b000001000001011010001001 (
#115000
1#
b11111111111100011011010101011011 &
b101011011000011100110110 )
#120000
0#
b00000000000010010110011110010001 %
b00000000000000000000000000001010 '
b000001000111110000000100 (
#125000
1#
b11111111111100000000000100111100 &
b110000010100010101111010 )
#130000
0#
b00000000000010100011001011100011 %
b00000000000000000000000000001011 '
b000001001101110011110111 (
#135000
1#
b11111111111100100001010000100000 &
b110101010110010010110001 )
#140000
0#
b00000000000010101111001111100111 %
b00000000000000000000000000001100 '
b000001010011100100000001 (
#145000
1#
b11111111111101110111000010100111 &
b111010011101111111110010 )
#150000
0#
b00000000000010111010100111011011 %
b00000000000000000000000000001101 '
b000001011000111111000100 (
#155000
1#
b11111111111111110011011100000101 &
b111111101011000111110110 )
#160000
0#
b00000000000011000101010000000101 %
b00000000000000000000000000001110 '
b000001011110000011101000 (
#165000
1#
b00000000000001110011000110011011 &
b000100111101010100011110 )
#170000
0#
b00000000000011001111000110111011 %
b00000000000000000000000000001111 '
b000001100010110000011100 (
#175000
1#
b00000000000011011000010010000101 &
b001010010100001101111010 )
#180000
0#
b00000000000011011000001001011101 %
b00000000000000000000000000010000 '
b000001100111000100010011 (
#185000
1#
b00000000000011111111101100010000 &
b001111101111011011001101 )
#190000
0#
b00000000000011100000010101011010 %
b00000000000000000000000000010001 '
b000001101010111110001001 (
#195000
1#
b00000000000011100001110001011001 &
b010101001110100010010110 )
#200000
0#
b00000000000011100111101000101011 %
b00000000000000000000000000010010 '
b000001101110011100111101 (
#205000
1#
b00000000000001111110001011101001 &
b011010110001001000010011 )
#210000
0#
b00000000000011101110000001011101 %
b00000000000000000000000000010011 '
b000001110001011111111000 (
#215000
1#
b11111111111111111001101101111011 &
b100000010110110001001011 )
#220000
0#
b00000000000011110011011110000111 %
b00000000000000000000000000010100 '
b000001110100000110001000 (
#225000
1#
b11111111111101110111000010100111 &
b100101111111000000010011 )
#230000
0#
b00000000000011110111111101010001 %
b00000000000000000000000000010101 '
b000001110110001111000011 (
#235000
1#
b11111111111100011000100101000011 &
b101011101001011000010110 )
#240000
0#
b00000000000011111011011101110010 %
b00000000000000000000000000010110 '
b000001110111111010000111 (
#245000
1#
b11111111111100000001111011001110 &
b110001010101011011011101 )
#250000
0#
b00000000000011111101111110110011 %
b00000000000000000000000000010111 '
b000001111001000110111001 (
#255000
1#
b11111111111100111010000111000000 &
b110111000010101011010110 )
#260000
0#
b00000000000011111111011111101010 %
b00000000000000000000000000011000 '
b000001111001110101000100 (
#265000
1#
b11111111111110101111101100101001 &
b111100110000101001011010 )
#270000
0#
b00000000000100000000000000000000 %
b00000000000000000000000000011001 '
b000001111010000100100000 (
#275000
1#
b00000000000000111000000101110000 &
b000010011110110110111010 )
#280000
0#
b00000000000011111111011111101010 %
b00000000000000000000000000011010 '
b000001111001110101000100 (
#285000
1#
b00000000000010110101000001001111 &
b001000001100110100111110 )
#290000
0#
b00000000000011111101111110110011 %
b00000000000000000000000000011011 '
b000001111001000110111001 (
#295000
1#
b00000000000011111001110001111001 &
b001101111010000100110111 )
#300000
0#
b00000000000011111011011101110010 %
b00000000000000000000000000011100 '
b000001110111111010000111 (
#305000
1#
b00000000000011110001000010010000 &
b010011100110000111111110 )
#310000
0#
b00000000000011110111111101010001 %
b00000000000000000000000000011101 '
b000001110110001111000011 (
#315000
1#
b00000000000010011101011111111101 &
b011001010000100000000001 )
#320000
0#
b00000000000011110011011110000111 %
b00000000000000000000000000011110 '
b000001110100000110001000 (
#325000
1#
b00000000000000011111010101100100 &
b011110111000101111001001 )
#330000
0#
b00000000000011101110000001011101 %
b00000000000000000000000000011111 '
b000001110001011111111000 (
#335000
1#
b11111111111110011000010000100010 &
b100100011110011000000001 )
#340000
0#
b00000000000011100111101000101011 %
b00000000000000000000000000100000 '
b000001101110011100111101 (
#345000
1#
b11111111111100101011001001001101 &
b101010000000111101111110 )
#350000
0#
b00000000000011100000010101011010 %
b00000000000000000000000000100001 '
b000001101010111110001001 (
#355000
1#
b11111111111100000000010011110000 &
b101111100000000101000111 )
#360000
0#
b00000000000011011000001001011101 %
b00000000000000000000000000100010 '
b000001100111000100010011 (
#365000
1#
b11111111111100011011010101011011 &
b110100111011010010011010 )
#370000
0#
b00000000000011001111000110111011 %
b00000000000000000000000000100011 '
b000001100010110000011100 (
#375000
1#
b11111111111101110111000010100111 &
b111010010010001011110110 )
#380000
0#
b00000000000011000101010000000101 %
b00000000000000000000000000100100 '
b000001011110000011101000 (
#385000
1#
b11111111111111110011011100000101 &
b111111100100011000011110 )
#390000
0#
b00000000000010111010100111011011 %
b00000000000000000000000000100101 '
b000001011000111111000100 (
#395000
1#
b00000000000001110011000110011011 &
b000100110001100000100010 )
#400000
0#
b00000000000010101111001111100111 %
b00000000000000000000000000100110 '
b000001010011100100000001 (
#405000
1#
b00000000000011010001010011010011 &
b001001111001001101100011 )
#410000
0#
b00000000000010100011001011100011 %
b00000000000000000000000000100111 '
b000001001101110011110111 (
#415000
1#
b00000000000011111110000100110010 &
b001110111011001010011010 )
#420000
0#
b00000000000010010110011110010001 %
b00000000000000000000000000101000 '
b000001000111110000000100 (
#425000
1#
b00000000000011101110110110001001 &
b010011110111000011011110 )
#430000
0#
b00000000000010001001001010111111 %
b00000000000000000000000000101001 '
b000001000001011010001001 (
#435000
1#
b00000000000010101011111010110100 &
b011000101100100110100111 )
#440000
0#
b00000000000001111011010101000011 %
b00000000000000000000000000101010 '
b000000111010110011101100 (
#445000
1#
b00000000000001000100010001110100 &
b011101011011100011010011 )
#450000
0#
b00000000000001101100111111111101 %
b00000000000000000000000000101011 '
b000000110011111110011001 (
#455000
1#
b11111111111111001110000011101001 &
b100010000011101010101100 )
#460000
0#
b00000000000001011110001111010110 %
b00000000000000000000000000101100 '
b000000101100111011111110 (
#465000
1#
b11111111111101100111100000000101 &
b100110100100101111101010 )
#470000
0#
b00000000000001001111000110111011 %
b00000000000000000000000000101101 '
b000000100101101110001100 (
#475000
1#
b11111111111100100001010000100000 &
b101010111110100110110110 )
#480000
0#
b00000000000000111111101010100010 %
b00000000000000000000000000101110 '
b000000011110010110111000 (
#485000
1#
b11111111111100000000101100011010 &
b101111010001000110101110 )
#490000
0#
b00000000000000101111111110000011 %
b00000000000000000000000000101111 '
b000000010110110111111010 (
#495000
1#
b11111111111100001100111010111100 &
b110011011100000111101000 )
#500000
0#
b00000000000000100000000101011101 %
b00000000000000000000000000110000 '
b000000001111010011001010 (
#505000
1#
b11111111111100111110001001111001 &
b110111011111100011110010 )
#510000
0#
b00000000000000010000000100110000 %
b00000000000000000000000000110001 '
b000000000111101010100010 (
#515000
1#
b11111111111110001100111001100101 &
b111011011011010111010100 )
#520000
0#
b00000000000000000000000000000000 %
b00000000000000000000000000110010 '
b000000000000000000000000 (
#525000
1#
b11111111111111100110111010000110 &
b111111001111100000010100 )
#530000
0#
b11111111111111101111111011010000 %
b00000000000000000000000000110011 '
b111111111000010101011110 (
#535000
1#
b00000000000001000100010001110100 &
b000010111011111110110010 )
#540000
0#
b11111111111111011111111010100011 %
b00000000000000000000000000110100 '
b111111110000101100110110 (
#545000
1#
b00000000000010011000011111111011 &
b000110100000110100101000 )
#550000
0#
b11111111111111010000000001111101 %
b00000000000000000000000000110101 '
b111111101001001000000110 (
#555000
1#
b00000000000011010001010011010011 &
b001001111110000101101110 )
#560000
0#
b11111111111111000000010101011110 %
b00000000000000000000000000110110 '
b111111100001101001001000 (
#565000
1#
b00000000000011110110101110100000 &
b001101010011110111110110 )
#570000
0#
b11111111111110110000111001000101 %
b00000000000000000000000000110111 '
b111111011010010001110100 (
#575000
1#
b00000000000011111111101100010000 &
b010000100010010010101010 )
#580000
0#
b11111111111110100001110000101010 %
b00000000000000000000000000111000 '
b111111010011000100000010 (
#585000
1#
b00000000000011110001000010010000 &
b010011101001011111101100 )
#590000
0#
b11111111111110010011000000000011 %
b00000000000000000000000000111001 '
b111111001100000001100111 (
#595000
1#
b00000000000011001101100111110000 &
b010110101001101010010011 )
#600000
0#
b11111111111110000100101010111101 %
b00000000000000000000000000111010 '
b111111000101001100010100 (
#605000
1#
b00000000000010011000011111111011 &
b011001100010111111100111 )
#610000
0#
b11111111111101110110110101000001 %
b00000000000000000000000000111011 '
b111110111110100101110111 (
#615000
1#
b00000000000001011100001000100001 &
b011100010101101110011110 )
#620000
0#
b11111111111101101001100001101111 %
b00000000000000000000000000111100 '
b111110111000001111111100 (
#625000
1#
b00000000000000011001000101111010 &
b011111000010000111011010 )
#630000
0#
b11111111111101011100110100011101 %
b00000000000000000000000000111101 '
b111110110010001100001001 (
#635000
1#
b11111111111111011010011011111110 &
b100001101000011100100011 )
#640000
0#
b11111111111101010000110000011001 %
b00000000000000000000000000111110 '
b111110101100011011111111 (
#645000
1#
b11111111111110011110000010001000 &
b100100001001000001100010 )
#650000
0#
b11111111111101000101011000100101 %
b00000000000000000000000000111111 '
b111110100111000000111100 (
#655000
1#
b11111111111101100111100000000101 &
b100110100100001011011110 )
#660000
0#
b11111111111100111010101111111011 %
b00000000000000000000000001000000 '
b111110100001111100011000 (
#665000
1#
b11111111111100111110001001111001 &
b101000111010010000110110 )
#670000
0#
b11111111111100110000111001000101 %
b00000000000000000000000001000001 '
b111110011101001111100100 (
#675000
1#
b11111111111100011110001110100111 &
b101011001011101001011010 )
#680000
0#
b11111111111100100111110110100011 %
b00000000000000000000000001000010 '
b111110011000111011101101 (
#685000
1#
b11111111111100001001010001100000 &
b101101011000101110000111 )
#690000
0#
b11111111111100011111101010100110 %
b00000000000000000000000001000011 '
b111110010101000001110111 (
#695000
1#
b11111111111100000000010011110000 &
b101111100001111000111110 )
#700000
0#
b11111111111100011000010111010101 %
b00000000000000000000000001000100 '
b111110010001100011000011 (
#705000
1#
b11111111111100000010110001010110 &
b110001100111100101000001 )
#710000
0#
b11111111111100010001111110100011 %
b00000000000000000000000001000101 '
b111110001110100000001000 (
#715000
1#
b11111111111100001110111101110000 &
b110011101010001110001001 )
#720000
0#
b11111111111100001100100001111001 %
b00000000000000000000000001000110 '
b111110001011111001111000 (
#725000
1#
b11111111111100100100011010111111 &
b110101101010010001000001 )
#730000
0#
b11111111111100001000000010101111 %
b00000000000000000000000001000111 '
b111110001001110000111101 (
#735000
1#
b11111111111101000010010100010001 &
b110111101000001010111110 )
#740000
0#
b11111111111100000100100010001110 %
b00000000000000000000000001001000 '
b111110001000000101111001 (
#745000
1#
b11111111111101100111100000000101 &
b111001100100011001110111 )
#750000
0#
b11111111111100000010000001001101 %
b00000000000000000000000001001001 '
b111110000110111001000111 (
#755000
1#
b11111111111110001100111001100101 &
b111011011111011011111110 )
#760000
0#
b11111111111100000000100000010110 %
b00000000000000000000000001001010 '
b111110000110001010111100 (
#765000
1#
b11111111111110111011101110001100 &
b111101011001101111111010 )
#770000
0#
b11111111111100000000000000000000 %
b00000000000000000000000001001011 '
b111110000101111011100000 (
#775000
1#
b11111111111111101101001010101110 &
b111111010011110100011010 )
#780000
0#
b11111111111100000000100000010110 %
b00000000000000000000000001001100 '
b111110000110001010111100 (
#785000
1#
b00000000000000011001000101111010 &
b000001001110001000010110 )
#790000
0#
b11111111111100000010000001001101 %
b00000000000000000000000001001101 '
b111110000110111001000111 (
#795000
1#
b00000000000001001010010100000001 &
b000011001001001010011101 )
#800000
0#
b11111111111100000100100010001110 %
b00000000000000000000000001001110 '
b111110001000000101111001 (
#805000
1#
b00000000000001111000101011010111 &
b000101000101011001010110 )
#810000
0#
b11111111111100001000000010101111 %
b00000000000000000000000001001111 '
b111110001001110000111101 (
#815000
1#
b00000000000010100010011001111001 &
b000111000011010011010011 )
#820000
0#
b11111111111100001100100001111001 %
b00000000000000000000000001010000 '
b111110001011111001111000 (
#825000
1#
b00000000000011000101111001000000 &
b001001000011010110001011 )
#830000
0#
b11111111111100010001111110100011 %
b00000000000000000000000001010001 '
b111110001110100000001000 (
#835000
1#
b00000000000011100001110001011001 &
b001011000101111111010011 )
#840000
0#
b11111111111100011000010111010101 %
b00000000000000000000000001010010 '
b111110010001100011000011 (
#845000
1#
b00000000000011110100111110100000 &
b001101001011101011010110 )
#850000
0#
b11111111111100011111101010100110 %
b00000000000000000000000001010011 '
b111110010101000001110111 (
#855000
1#
b00000000000011111111010011100110 &
b001111010100110110001101 )
#860000
0#
b11111111111100100111110110100011 %
b00000000000000000000000001010100 '
b111110011000111011101101 (
#865000
1#
b00000000000011111101001110101010 &
b010001100001111010111010 )
#870000
0#
b11111111111100110000111001000101 %
b00000000000000000000000001010101 '
b111110011101001111100100 (
#875000
1#
b00000000000011101110110110001001 &
b010011110011010011011110 )
#880000
0#
b11111111111100111010101111111011 %
b00000000000000000000000001010110 '
b111110100001111100011000 (
#885000
1#
b00000000000011010100110110110011 &
b010110001001011000110110 )
#890000
0#
b11111111111101000101011000100101 %
b00000000000000000000000001010111 '
b111110100111000000111100 (
#895000
1#
b00000000000010101011111010110100 &
b011000100100100010110010 )
#900000
0#
b11111111111101010000110000011001 %
b00000000000000000000000001011000 '
b111110101100011011111111 (
#905000
1#
b00000000000001111000101011010111 &
b011011000101000111110001 )
#910000
0#
b11111111111101011100110100011101 %
b00000000000000000000000001011001 '
b111110110010001100001001 (
#915000
1#
b00000000000000111110001100111111 &
b011101101011011100111010 )
#920000
0#
b11111111111101101001100001101111 %
b00000000000000000000000001011010 '
b111110111000001111111100 (
#925000
1#
b11111111111111111001101101111011 &
b100000010111110101110110 )
#930000
0#
b11111111111101110110110101000001 %
b00000000000000000000000001011011 '
b111110111110100101110111 (
#935000
1#
b11111111111110110101101011111111 &
b100011001010100100101101 )
#940000
0#
b11111111111110000100101010111101 %
b00000000000000000000000001011100 '
b111111000101001100010100 (
#945000
1#
b11111111111101110001110001100011 &
b100110000011111010000001 )
#950000
0#
b11111111111110010011000000000011 %
b00000000000000000000000001011101 '
b111111001100000001100111 (
#955000
1#
b11111111111100111010000111000000 &
b101001000100000100101000 )
#960000
0#
b11111111111110100001110000101010 %
b00000000000000000000000001011110 '
b111111010011000100000010 (
#965000
1#
b11111111111100010011011111001011 &
b101100001011010001101010 )
#970000
0#
b11111111111110110000111001000101 %
b00000000000000000000000001011111 '
b111111011010010001110100 (
#975000
1#
b11111111111100000000101100011010 &
b101111011001101100011110 )
#980000
0#
b11111111111111000000010101011110 %
b00000000000000000000000001100000 '
b111111100001101001001000 (
#985000
1#
b11111111111100000111101011000001 &
b110010101111011110100110 )
#990000
0#
b11111111111111010000000001111101 %
b00000000000000000000000001100001 '
b111111101001001000000110 (
#995000
1#
b11111111111100101011001001001101 &
b110110001100101111101100 )
#1000000
0#
b11111111111111011111111010100011 %
b00000000000000000000000001100010 '
b111111110000101100110110 (
#1005000
1#
b11111111111101101100100101111110 &
b111001110001100101100010 )
#1010000
0#
b11111111111111101111111011010000 %
b00000000000000000000000001100011 '
b111111111000010101011110 (
#1015000
1#
b11111111111110111011101110001100 &
b111101011110000100000000 )
#1020000
0#
b00000000000000000000000000000000 %
b00000000000000000000000001100100 '
b000000000000000000000000 (
#1025000
1#
b00000000000000011111010101100100 &
b000001010010001101000000 )
#1030000
0#
b00000000000000010000000100110000 %
b00000000000000000000000001100101 '
b000000000111101010100010 (
#1035000
1#
b00000000000001111000101011010111 &
b000101001110000000100010 )
#1040000
0#
b00000000000000100000000101011101 %
b00000000000000000000000001100110 '
b000000001111010011001010 (
#1045000
1#
b00000000000011001001110100010001 &
b001001010001011100101100 )
#1050000
0#
b00000000000000101111111110000011 %
b00000000000000000000000001100111 '
b000000010110110111111010 (
#1055000
1#
b00000000000011110110101110100000 &
b001101011100011101100110 )
#1060000
0#
b00000000000000111111101010100010 %
b00000000000000000000000001101000 '
b000000011110010110111000 (
#1065000
1#
b00000000000011111101001110101010 &
b010001101110111101011110 )
#1070000
0#
b00000000000001001111000110111011 %
b00000000000000000000000001101001 '
b000000100101101110001100 (
#1075000
1#
b00000000000011010100110110110011 &
b010110001000110100101010 )
#1080000
0#
b00000000000001011110001111010110 %
b00000000000000000000000001101010 '
b000000101100111011111110 (
#1085000
1#
b00000000000010000011100111000011 &
b011010101001111001101000 )
#1090000
0#
b00000000000001101100111111111101 %
b00000000000000000000000001101011 '
b000000110011111110011001 (
#1095000
1#
b00000000000000010010110101010010 &
b011111010010000001000001 )
#1100000
0#
b00000000000001111011010101000011 %
b00000000000000000000000001101100 '
b000000111010110011101100 (
#1105000
1#
b11111111111110011110000010001000 &
b100100000000111101101101 )
#1110000
0#
b00000000000010001001001010111111 %
b00000000000000000000000001101101 '
b000001000001011010001001 (
#1115000
1#
b11111111111100111110001001111001 &
b101000110110100000110110 )
#1120000
0#
b00000000000010010110011110010001 %
b00000000000000000000000001101110 '
b000001000111110000000100 (
#1125000
1#
b11111111111100000110001110000111 &
b101101110010011001111010 )
#1130000
0#
b00000000000010100011001011100011 %
b00000000000000000000000001101111 '
b000001001101110011110111 (
#1135000
1#
b11111111111100001001010001100000 &
b110010110100010110110001 )
#1140000
0#
b00000000000010101111001111100111 %
b00000000000000000000000001110000 '
b000001010011100100000001 (
#1145000
1#
b11111111111101000110100101111100 &
b110111111100000011110010 )
#1150000
0#
b00000000000010111010100111011011 %
b00000000000000000000000001110001 '
b000001011000111111000100 (
#1155000
1#
b11111111111110110101101011111111 &
b111101001001001011110110 )
#1160000
0#
b00000000000011000101010000000101 %
b00000000000000000000000001110010 '
b000001011110000011101000 (
#1165000
1#
b00000000000000111000000101110000 &
b000010011011011000011110 )
#1170000
0#
b00000000000011001111000110111011 %
b00000000000000000000000001110011 '
b000001100010110000011100 (
#1175000
1#
b00000000000010110000100001011011 &
b000111110010010001111010 )
#1180000
0#
b00000000000011011000001001011101 %
b00000000000000000000000001110100 '
b000001100111000100010011 (
#1185000
1#
b00000000000011110100111110100000 &
b001101001101011111001101 )
#1190000
0#
b00000000000011100000010101011010 %
b00000000000000000000000001110101 '
b000001101010111110001001 (
#1195000
1#
b00000000000011111000010100111111 &
b010010101100100110010110 )
#1200000
0#
b00000000000011100111101000101011 %
b00000000000000000000000001110110 '
b000001101110011100111101 (
#1205000
1#
b00000000000010110101000001001111 &
b011000001111001100010011 )
#1210000
0#
b00000000000011101110000001011101 %
b00000000000000000000000001110111 '
b000001110001011111111000 (
#1215000
1#
b00000000000000111000000101110000 &
b011101110100110101001011 )
#1220000
0#
b00000000000011110011011110000111 %
b00000000000000000000000001111000 '
b000001110100000110001000 (
#1225000
1#
b11111111111110101111101100101001 &
b100011011101000100010011 )
#1230000
0#
b00000000000011110111111101010001 %
b00000000000000000000000001111001 '
b000001110110001111000011 (
#1235000
1#
b11111111111100111010000111000000 &
b101001000111011100010110 )
#1240000
0#
b00000000000011111011011101110010 %
b00000000000000000000000001111010 '
b000001110111111010000111 (
#1245000
1#
b11111111111100000001111011001110 &
b101110110011011111011101 )
#1250000
0#
b00000000000011111101111110110011 %
b00000000000000000000000001111011 '
b000001111001000110111001 (
#1255000
1#
b11111111111100011000100101000011 &
b110100100000101111010110 )
#1260000
0#
b00000000000011111111011111101010 %
b00000000000000000000000001111100 '
b000001111001110101000100 (
#1265000
1#
b11111111111101110001110001100011 &
b111010001110101101011010 )
#1270000
0#
b00000000000100000000000000000000 %
b00000000000000000000000001111101 '
b000001111010000100100000 (
#1275000
1#
b11111111111111111001101101111011 &
b111111111100111010111010 )
#1280000
0#
b00000000000011111111011111101010 %
b00000000000000000000000001111110 '
b000001111001110101000100 (
#1285000
1#
b00000000000010000011100111000011 &
b000101101010111000111110 )
#1290000
0#
b00000000000011111101111110110011 %
b00000000000000000000000001111111 '
b000001111001000110111001 (
#1295000
1#
b00000000000011100100101010100101 &
b001011011000001000110111 )
#1300000
0#
b00000000000011111011011101110010 %
b00000000000000000000000010000000 '
b000001110111111010000111 (
#1305000
1#
b00000000000011111110110001000110 &
b010001000100001011111110 )
#1310000
0#
b00000000000011110111111101010001 %
b00000000000000000000000010000001 '
b000001110110001111000011 (
#1315000
1#
b00000000000011001101100111110000 &
b010110101110100100000001 )
#1320000
0#
b00000000000011110011011110000111 %
b00000000000000000000000010000010 '
b000001110100000110001000 (
#1325000
1#
b00000000000001011100001000100001 &
b011100010110110011001001 )
#1330000
0#
b00000000000011101110000001011101 %
b00000000000000000000000010000011 '
b000001110001011111111000 (
#1335000
1#
b11111111111111010100001110111110 &
b100001111100011100000001 )
#1340000
0#
b00000000000011100111101000101011 %
b00000000000000000000000010000100 '
b000001101110011100111101 (
#1345000
1#
b11111111111101011000110010011011 &
b100111011111000001111110 )
#1350000
0#
b00000000000011100000010101011010 %
b00000000000000000000000010000101 '
b000001101010111110001001 (
#1355000
1#
b11111111111100001100111010111100 &
b101100111110001001000111 )
#1360000
0#
b00000000000011011000001001011101 %
b00000000000000000000000010000110 '
b000001100111000100010011 (
#1365000
1#
b11111111111100000110001110000111 &
b110010011001010110011010 )
#1370000
0#
b00000000000011001111000110111011 %
b00000000000000000000000010000111 '
b000001100010110000011100 (
#1375000
1#
b11111111111101000110100101111100 &
b110111110000001111110110 )
#1380000
0#
b00000000000011000101010000000101 %
b00000000000000000000000010001000 '
b000001011110000011101000 (
#1385000
1#
b11111111111110110101101011111111 &
b111101000010011100011110 )
#1390000
0#
b00000000000010111010100111011011 %
b00000000000000000000000010001001 '
b000001011000111111000100 (
#1395000
1#
b00000000000000110001111100010111 &
b000010001111100100100010 )
#1400000
0#
b00000000000010101111001111100111 %
b00000000000000000000000010001010 '
b000001010011100100000001 (
#1405000
1#
b00000000000010100111001101100101 &
b000111010111010001100011 )
#1410000
0#
b00000000000010100011001011100011 %
b00000000000000000000000010001011 '
b000001001101110011110111 (
#1415000
1#
b00000000000011101110110110001001 &
b001100011001001110011010 )
#1420000
0#
b00000000000010010110011110010001 %
b00000000000000000000000010001100 '
b000001000111110000000100 (
#1425000
1#
b00000000000011111110000100110010 &
b010001010101000111011110 )
#1430000
0#
b00000000000010001001001010111111 %
b00000000000000000000000010001101 '
b000001000001011010001001 (
#1435000
1#
b00000000000011010100110110110011 &
b010110001010101010100111 )
#1440000
0#
b00000000000001111011010101000011 %
b00000000000000000000000010001110 '
b000000111010110011101100 (
#1445000
1#
b00000000000001111110001011101001 &
b011010111001100111010011 )
#1450000
0#
b00000000000001101100111111111101 %
b00000000000000000000000010001111 '
b000000110011111110011001 (
#1455000
1#
b00000000000000001100100011111011 &
b011111100001101110101100 )
#1460000
0#
b00000000000001011110001111010110 %
b00000000000000000000000010010000 '
b000000101100111011111110 (
#1465000
1#
b11111111111110011110000010001000 &
b100100000010110011101010 )
#1470000
0#
b00000000000001001111000110111011 %
b00000000000000000000000010010001 '
b000000100101101110001100 (
#1475000
1#
b11111111111101000110100101111100 &
b101000011100101010110110 )
#1480000
0#
b00000000000000111111101010100010 %
b00000000000000000000000010010010 '
b000000011110010110111000 (
#1485000
1#
b11111111111100001110111101110000 &
b101100101111001010101110 )
#1490000
0#
b00000000000000101111111110000011 %
b00000000000000000000000010010011 '
b000000010110110111111010 (
#1495000
1#
b11111111111100000000101100011010 &
b110000111010001011101000 )
#1500000
0#
b00000000000000100000000101011101 %
b00000000000000000000000010010100 '
b000000001111010011001010 (
#1505000
1#
b11111111111100011011010101011011 &
b110100111101100111110010 )
#1510000
0#
b00000000000000010000000100110000 %
b00000000000000000000000010010101 '
b000000000111101010100010 (
#1515000
1#
b11111111111101011000110010011011 &
b111000111001011011010100 )
#1520000
0#
b00000000000000000000000000000000 %
b00000000000000000000000010010110 '
b000000000000000000000000 (
#1525000
1#
b11111111111110101001110000011010 &
b111100101101100100010100 )
#1530000
0#
b11111111111111101111111011010000 %
b00000000000000000000000010010111 '
b111111111000010101011110 (
#1535000
1#
b00000000000000000110010010000101 &
b000000011010000010110010 )
#1540000
0#
b11111111111111011111111010100011 %
b00000000000000000000000010011000 '
b111111110000101100110110 (
#1545000
1#
b00000000000001011100001000100001 &
b000011111110111000101000 )
#1550000
0#
b11111111111111010000000001111101 %
b00000000000000000000000010011001 '
b111111101001001000000110 (
#1555000
1#
b00000000000010100111001101100101 &
b000111011100001001101110 )
#1560000
0#
b11111111111111000000010101011110 %
b00000000000000000000000010011010 '
b111111100001101001001000 (
#1565000
1#
b00000000000011011110101111100000 &
b001010110001111011110110 )
#1570000
0#
b11111111111110110000111001000101 %
b00000000000000000000000010011011 '
b111111011010010001110100 (
#1575000
1#
b00000000000011111011000101001011 &
b001110000000010110101010 )
#1580000
0#
b11111111111110100001110000101010 %
b00000000000000000000000010011100 '
b111111010011000100000010 (
#1585000
1#
b00000000000011111110110001000110 &
b010001000111100011101100 )
#1590000
0#
b11111111111110010011000000000011 %
b00000000000000000000000010011101 '
b111111001100000001100111 (
#1595000
1#
b00000000000011101100100000110101 &
b010100000111101110010011 )
#1600000
0#
b11111111111110000100101010111101 %
b00000000000000000000000010011110 '
b111111000101001100010100 (
#1605000
1#
b00000000000011000101111001000000 &
b010111000001000011100111 )
#1610000
0#
b11111111111101110110110101000001 %
b00000000000000000000000010011111 '
b111110111110100101110111 (
#1615000
1#
b00000000000010010011011010000010 &
b011001110011110010011110 )
#1620000
0#
b11111111111101101001100001101111 %
b00000000000000000000000010100000 '
b111110111000001111111100 (
#1625000
1#
b00000000000001010110001111100110 &
b011100100000001011011010 )
#1630000
0#
b11111111111101011100110100011101 %
b00000000000000000000000010100001 '
b111110110010001100001001 (
#1635000
1#
b00000000000000011001000101111010 &
b011111000110100000100011 )
#1640000
0#
b11111111111101010000110000011001 %
b00000000000000000000000010100010 '
b111110101100011011111111 (
#1645000
1#
b11111111111111011010011011111110 &
b100001100111000101100010 )
#1650000
0#
b11111111111101000101011000100101 %
b00000000000000000000000010100011 '
b111110100111000000111100 (
#1655000
1#
b11111111111110011110000010001000 &
b100100000010001111011110 )
#1660000
0#
b11111111111100111010101111111011 %
b00000000000000000000000010100100 '
b111110100001111100011000 (
#1665000
1#
b11111111111101101100100101111110 &
b100110011000010100110110 )
#1670000
0#
b11111111111100110000111001000101 %
b00000000000000000000000010100101 '
b111110011101001111100100 (
#1675000
1#
b11111111111101000010010100010001 &
b101000101001101101011010 )
#1680000
0#
b11111111111100100111110110100011 %
b00000000000000000000000010100110 '
b111110011000111011101101 (
#1685000
1#
b11111111111100100001010000100000 &
b101010110110110010000111 )
#1690000
0#
b11111111111100011111101010100110 %
b00000000000000000000000010100111 '
b111110010101000001110111 (
#1695000
1#
b11111111111100001100111010111100 &
b101100111111111100111110 )
#1700000
0#
b11111111111100011000010111010101 %
b00000000000000000000000010101000 '
b111110010001100011000011 (
#1705000
1#
b11111111111100000001001110111010 &
b101111000101101001000001 )
#1710000
0#
b11111111111100010001111110100011 %
b00000000000000000000000010101001 '
b111110001110100000001000 (
#1715000
1#
b110001001000010010001001 )
#1720000
0#
b11111111111100001100100001111001 %
b00000000000000000000000010101010 '
b111110001011111001111000 (
#1725000
1#
b11111111111100001011000001100000 &
b110011001000010101000001 )
#1730000
0#
b11111111111100001000000010101111 %
b00000000000000000000000010101011 '
b111110001001110000111101 (
#1735000
1#
b11111111111100011110001110100111 &
b110101000110001110111110 )
#1740000
0#
b11111111111100000100100010001110 %
b00000000000000000000000010101100 '
b111110001000000101111001 (
#1745000
1#
b11111111111100111010000111000000 &
b110111000010011101110111 )
